{
  "page": 1,
  "perPage": 30,
  "totalItems": 1000,
  "totalPages": 34,
  "items": [
    {
      "id": "record_0",
      "title": "Mock Record 0",
      "content": "This is mock content for record 0",
      "created": "2024-01-01 00:00:00"
    },
    {
      "id": "record_1",
      "title": "Mock Record 1",
      "content": "This is mock content for record 1",
      "created": "2024-01-01 00:00:00"
    },
    {
      "id": "record_2",
      "title": "Mock Record 2",
      "content": "This is mock content for record 2",
      "created": "2024-01-01 00:00:00"
    },
    {
      "id": "record_3",
      "title": "Mock Record 3",
      "content": "This is mock content for record 3",
      "created": "2024-01-01 00:00:00"
    },
    {
      "id": "record_4",
      "title": "Mock Record 4",
      "content": "This is mock content for record 4",
      "created": "2024-01-01 00:00:00"
    },
    {
      "id": "record_5",
      "title": "Mock Record 5",
      "content": "This is mock content for record 5",
      "created": "2024-01-01 00:00:00"
    },
    {
      "id": "record_6",
      "title": "Mock Record 6",
      "content": "This is mock content for record 6",
      "created": "2024-01-01 00:00:00"
    },
    {
      "id": "record_7",
      "title": "Mock Record 7",
      "content": "This is mock content for record 7",
      "created": "2024-01-01 00:00:00"
    },
    {
      "id": "record_8",
      "title": "Mock Record 8",
      "content": "This is mock content for record 8",
      "created": "2024-01-01 00:00:00"
    },
    {
      "id": "record_9",
      "title": "Mock Record 9",
      "content": "This is mock content for record 9",
      "created": "2024-01-01 00:00:00"
    },
    {
      "id": "record_10",
      "title": "Mock Record 10",
      "content": "This is mock content for record 10",
      "created": "2024-01-01 00:00:00"
    },
    {
      "id": "record_11",
      "title": "Mock Record 11",
      "content": "This is mock content for record 11",
      "created": "2024-01-01 00:00:00"
    },
    {
      "id": "record_12",
      "title": "Mock Record 12",
      "content": "This is mock content for record 12",
      "created": "2024-01-01 00:00:00"
    },
    {
      "id": "record_13",
      "title": "Mock Record 13",
      "content": "This is mock content for record 13",
      "created": "2024-01-01 00:00:00"
    },
    {
      "id": "record_14",
      "title": "Mock Record 14",
      "content": "This is mock content for record 14",
      "created": "2024-01-01 00:00:00"
    },
    {
      "id": "record_15",
      "title": "Mock Record 15",
      "content": "This is mock content for record 15",
      "created": "2024-01-01 00:00:00"
    },
    {
      "id": "record_16",
      "title": "Mock Record 16",
      "content": "This is mock content for record 16",
      "created": "2024-01-01 00:00:00"
    },
    {
      "id": "record_17",
      "title": "Mock Record 17",
      "content": "This is mock content for record 17",
      "created": "2024-01-01 00:00:00"
    },
    {
      "id": "record_18",
      "title": "Mock Record 18",
      "content": "This is mock content for record 18",
      "created": "2024-01-01 00:00:00"
    },
    {
      "id": "record_19",
      "title": "Mock Record 19",
      "content": "This is mock content for record 19",
      "created": "2024-01-01 00:00:00"
    },
    {
      "id": "record_20",
      "title": "Mock Record 20",
      "content": "This is mock content for record 20",
      "created": "2024-01-01 00:00:00"
    },
    {
      "id": "record_21",
      "title": "Mock Record 21",
      "content": "This is mock content for record 21",
      "created": "2024-01-01 00:00:00"
    },
    {
      "id": "record_22",
      "title": "Mock Record 22",
      "content": "This is mock content for record 22",
      "created": "2024-01-01 00:00:00"
    },
    {
      "id": "record_23",
      "title": "Mock Record 23",
      "content": "This is mock content for record 23",
      "created": "2024-01-01 00:00:00"
    },
    {
      "id": "record_24",
      "title": "Mock Record 24",
      "content": "This is mock content for record 24",
      "created": "2024-01-01 00:00:00"
    },
    {
      "id": "record_25",
      "title": "Mock Record 25",
      "content": "This is mock content for record 25",
      "created": "2024-01-01 00:00:00"
    },
    {
      "id": "record_26",
      "title": "Mock Record 26",
      "content": "This is mock content for record 26",
      "created": "2024-01-01 00:00:00"
    },
    {
      "id": "record_27",
      "title": "Mock Record 27",
      "content": "This is mock content for record 27",
      "created": "2024-01-01 00:00:00"
    },
    {
      "id": "record_28",
      "title": "Mock Record 28",
      "content": "This is mock content for record 28",
      "created": "2024-01-01 00:00:00"
    },
    {
      "id": "record_29",
      "title": "Mock Record 29",
      "content": "This is mock content for record 29",
      "created": "2024-01-01 00:00:00"
    },
    {
      "id": "record_30",
      "title": "Mock Record 30",
      "content": "This is mock content for record 30",
      "created": "2024-01-01 00:00:00"
    },
    {
      "id": "record_31",
      "title": "Mock Record 31",
      "content": "This is mock content for record 31",
      "created": "2024-01-01 00:00:00"
    },
    {
      "id": "record_32",
      "title": "Mock Record 32",
      "content": "This is mock content for record 32",
      "created": "2024-01-01 00:00:00"
    },
    {
      "id": "record_33",
      "title": "Mock Record 33",
      "content": "This is mock content for record 33",
      "created": "2024-01-01 00:00:00"
    },
    {
      "id": "record_34",
      "title": "Mock Record 34",
      "content": "This is mock content for record 34",
      "created": "2024-01-01 00:00:00"
    },
    {
      "id": "record_35",
      "title": "Mock Record 35",
      "content": "This is mock content for record 35",
      "created": "2024-01-01 00:00:00"
    },
    {
      "id": "record_36",
      "title": "Mock Record 36",
      "content": "This is mock content for record 36",
      "created": "2024-01-01 00:00:00"
    },
    {
      "id": "record_37",
      "title": "Mock Record 37",
      "content": "This is mock content for record 37",
      "created": "2024-01-01 00:00:00"
    },
    {
      "id": "record_38",
      "title": "Mock Record 38",
      "content": "This is mock content for record 38",
      "created": "2024-01-01 00:00:00"
    },
    {
      "id": "record_39",
      "title": "Mock Record 39",
      "content": "This is mock content for record 39",
      "created": "2024-01-01 00:00:00"
    },
    {
      "id": "record_40",
      "title": "Mock Record 40",
      "content": "This is mock content for record 40",
      "created": "2024-01-01 00:00:00"
    },
    {
      "id": "record_41",
      "title": "Mock Record 41",
      "content": "This is mock content for record 41",
      "created": "2024-01-01 00:00:00"
    },
    {
      "id": "record_42",
      "title": "Mock Record 42",
      "content": "This is mock content for record 42",
      "created": "2024-01-01 00:00:00"
    },
    {
      "id": "record_43",
      "title": "Mock Record 43",
      "content": "This is mock content for record 43",
      "created": "2024-01-01 00:00:00"
    },
    {
      "id": "record_44",
      "title": "Mock Record 44",
      "content": "This is mock content for record 44",
      "created": "2024-01-01 00:00:00"
    },
    {
      "id": "record_45",
      "title": "Mock Record 45",
      "content": "This is mock content for record 45",
      "created": "2024-01-01 00:00:00"
    },
    {
      "id": "record_46",
      "title": "Mock Record 46",
      "content": "This is mock content for record 46",
      "created": "2024-01-01 00:00:00"
    },
    {
      "id": "record_47",
      "title": "Mock Record 47",
      "content": "This is mock content for record 47",
      "created": "2024-01-01 00:00:00"
    },
    {
      "id": "record_48",
      "title": "Mock Record 48",
      "content": "This is mock content for record 48",
      "created": "2024-01-01 00:00:00"
    },
    {
      "id": "record_49",
      "title": "Mock Record 49",
      "content": "This is mock content for record 49",
      "created": "2024-01-01 00:00:00"
    },
    {
      "id": "record_50",
      "title": "Mock Record 50",
      "content": "This is mock content for record 50",
      "created": "2024-01-01 00:00:00"
    },
    {
      "id": "record_51",
      "title": "Mock Record 51",
      "content": "This is mock content for record 51",
      "created": "2024-01-01 00:00:00"
    },
    {
      "id": "record_52",
      "title": "Mock Record 52",
      "content": "This is mock content for record 52",
      "created": "2024-01-01 00:00:00"
    },
    {
      "id": "record_53",
      "title": "Mock Record 53",
      "content": "This is mock content for record 53",
      "created": "2024-01-01 00:00:00"
    },
    {
      "id": "record_54",
      "title": "Mock Record 54",
      "content": "This is mock content for record 54",
      "created": "2024-01-01 00:00:00"
    },
    {
      "id": "record_55",
      "title": "Mock Record 55",
      "content": "This is mock content for record 55",
      "created": "2024-01-01 00:00:00"
    },
    {
      "id": "record_56",
      "title": "Mock Record 56",
      "content": "This is mock content for record 56",
      "created": "2024-01-01 00:00:00"
    },
    {
      "id": "record_57",
      "title": "Mock Record 57",
      "content": "This is mock content for record 57",
      "created": "2024-01-01 00:00:00"
    },
    {
      "id": "record_58",
      "title": "Mock Record 58",
      "content": "This is mock content for record 58",
      "created": "2024-01-01 00:00:00"
    },
    {
      "id": "record_59",
      "title": "Mock Record 59",
      "content": "This is mock content for record 59",
      "created": "2024-01-01 00:00:00"
    },
    {
      "id": "record_60",
      "title": "Mock Record 60",
      "content": "This is mock content for record 60",
      "created": "2024-01-01 00:00:00"
    },
    {
      "id": "record_61",
      "title": "Mock Record 61",
      "content": "This is mock content for record 61",
      "created": "2024-01-01 00:00:00"
    },
    {
      "id": "record_62",
      "title": "Mock Record 62",
      "content": "This is mock content for record 62",
      "created": "2024-01-01 00:00:00"
    },
    {
      "id": "record_63",
      "title": "Mock Record 63",
      "content": "This is mock content for record 63",
      "created": "2024-01-01 00:00:00"
    },
    {
      "id": "record_64",
      "title": "Mock Record 64",
      "content": "This is mock content for record 64",
      "created": "2024-01-01 00:00:00"
    },
    {
      "id": "record_65",
      "title": "Mock Record 65",
      "content": "This is mock content for record 65",
      "created": "2024-01-01 00:00:00"
    },
    {
      "id": "record_66",
      "title": "Mock Record 66",
      "content": "This is mock content for record 66",
      "created": "2024-01-01 00:00:00"
    },
    {
      "id": "record_67",
      "title": "Mock Record 67",
      "content": "This is mock content for record 67",
      "created": "2024-01-01 00:00:00"
    },
    {
      "id": "record_68",
      "title": "Mock Record 68",
      "content": "This is mock content for record 68",
      "created": "2024-01-01 00:00:00"
    },
    {
      "id": "record_69",
      "title": "Mock Record 69",
      "content": "This is mock content for record 69",
      "created": "2024-01-01 00:00:00"
    },
    {
      "id": "record_70",
      "title": "Mock Record 70",
      "content": "This is mock content for record 70",
      "created": "2024-01-01 00:00:00"
    },
    {
      "id": "record_71",
      "title": "Mock Record 71",
      "content": "This is mock content for record 71",
      "created": "2024-01-01 00:00:00"
    },
    {
      "id": "record_72",
      "title": "Mock Record 72",
      "content": "This is mock content for record 72",
      "created": "2024-01-01 00:00:00"
    },
    {
      "id": "record_73",
      "title": "Mock Record 73",
      "content": "This is mock content for record 73",
      "created": "2024-01-01 00:00:00"
    },
    {
      "id": "record_74",
      "title": "Mock Record 74",
      "content": "This is mock content for record 74",
      "created": "2024-01-01 00:00:00"
    },
    {
      "id": "record_75",
      "title": "Mock Record 75",
      "content": "This is mock content for record 75",
      "created": "2024-01-01 00:00:00"
    },
    {
      "id": "record_76",
      "title": "Mock Record 76",
      "content": "This is mock content for record 76",
      "created": "2024-01-01 00:00:00"
    },
    {
      "id": "record_77",
      "title": "Mock Record 77",
      "content": "This is mock content for record 77",
      "created": "2024-01-01 00:00:00"
    },
    {
      "id": "record_78",
      "title": "Mock Record 78",
      "content": "This is mock content for record 78",
      "created": "2024-01-01 00:00:00"
    },
    {
      "id": "record_79",
      "title": "Mock Record 79",
      "content": "This is mock content for record 79",
      "created": "2024-01-01 00:00:00"
    },
    {
      "id": "record_80",
      "title": "Mock Record 80",
      "content": "This is mock content for record 80",
      "created": "2024-01-01 00:00:00"
    },
    {
      "id": "record_81",
      "title": "Mock Record 81",
      "content": "This is mock content for record 81",
      "created": "2024-01-01 00:00:00"
    },
    {
      "id": "record_82",
      "title": "Mock Record 82",
      "content": "This is mock content for record 82",
      "created": "2024-01-01 00:00:00"
    },
    {
      "id": "record_83",
      "title": "Mock Record 83",
      "content": "This is mock content for record 83",
      "created": "2024-01-01 00:00:00"
    },
    {
      "id": "record_84",
      "title": "Mock Record 84",
      "content": "This is mock content for record 84",
      "created": "2024-01-01 00:00:00"
    },
    {
      "id": "record_85",
      "title": "Mock Record 85",
      "content": "This is mock content for record 85",
      "created": "2024-01-01 00:00:00"
    },
    {
      "id": "record_86",
      "title": "Mock Record 86",
      "content": "This is mock content for record 86",
      "created": "2024-01-01 00:00:00"
    },
    {
      "id": "record_87",
      "title": "Mock Record 87",
      "content": "This is mock content for record 87",
      "created": "2024-01-01 00:00:00"
    },
    {
      "id": "record_88",
      "title": "Mock Record 88",
      "content": "This is mock content for record 88",
      "created": "2024-01-01 00:00:00"
    },
    {
      "id": "record_89",
      "title": "Mock Record 89",
      "content": "This is mock content for record 89",
      "created": "2024-01-01 00:00:00"
    },
    {
      "id": "record_90",
      "title": "Mock Record 90",
      "content": "This is mock content for record 90",
      "created": "2024-01-01 00:00:00"
    },
    {
      "id": "record_91",
      "title": "Mock Record 91",
      "content": "This is mock content for record 91",
      "created": "2024-01-01 00:00:00"
    },
    {
      "id": "record_92",
      "title": "Mock Record 92",
      "content": "This is mock content for record 92",
      "created": "2024-01-01 00:00:00"
    },
    {
      "id": "record_93",
      "title": "Mock Record 93",
      "content": "This is mock content for record 93",
      "created": "2024-01-01 00:00:00"
    },
    {
      "id": "record_94",
      "title": "Mock Record 94",
      "content": "This is mock content for record 94",
      "created": "2024-01-01 00:00:00"
    },
    {
      "id": "record_95",
      "title": "Mock Record 95",
      "content": "This is mock content for record 95",
      "created": "2024-01-01 00:00:00"
    },
    {
      "id": "record_96",
      "title": "Mock Record 96",
      "content": "This is mock content for record 96",
      "created": "2024-01-01 00:00:00"
    },
    {
      "id": "record_97",
      "title": "Mock Record 97",
      "content": "This is mock content for record 97",
      "created": "2024-01-01 00:00:00"
    },
    {
      "id": "record_98",
      "title": "Mock Record 98",
      "content": "This is mock content for record 98",
      "created": "2024-01-01 00:00:00"
    },
    {
      "id": "record_99",
      "title": "Mock Record 99",
      "content": "This is mock content for record 99",
      "created": "2024-01-01 00:00:00"
    }
  ]
}